{
	"title" : "Soft Skills",
	"description" : "",
	"endtext" : "",
	"skills1" : [
		"Patience",
		"Positive attitude",
		"Good at teamwork",
		"Continuous learning"
	],
	"skills2" : [
		"Working well under pressure",
		"Problem-solving skills",
		"Critical thinking",
		"Accept and learn from criticism"
	]
}